444514 461296 444
881100 43014 525
858016 412212 525
726987 649465 504
816107 944157 525
484086 265411 449
208023 813141 509
61329 757046 509
482749 214616 449
925011 55967 525
584251 761748 509
708878 871383 525
336636 613533 470
836558 489290 509
806207 571601 509
257871 539765 470
515923 103205 470
156180 46955 383
181214 982176 525
938996 824221 525
25375 974448 525
721887 841539 525
567324 406524 470
875717 304136 525
692973 510649 509
549515 745011 509
196089 784042 509
878861 488046 525
17651 794849 509
678728 612817 509
128943 272890 443
568709 144624 470
416953 223170 449
265755 524231 470
425603 109860 449
511025 924174 525
348744 946156 525
821262 877205 525
180555 7914 383
214199 125720 383
431120 286789 449
701054 47595 509
10591 170973 383
50265 221811 386
823572 459482 509
735389 44674 509
571182 995680 525
207530 626087 470
82120 393534 443
905395 754594 525
203476 276315 443
111017 457541 449
774276 443751 509
106306 514202 470
768541 705652 468
385060 322502 441
933429 699943 525
804827 534178 509
892865 999255 507
219568 96718 386
539599 363299 470
123400 266178 443
989459 462718 525
329632 495031 449
505251 654755 509
947163 311021 525
716552 760786 424
523425 598427 452
555097 574567 421
69123 409402 443
444526 376551 449
729424 991874 525
606603 510860 470
546798 995225 525
567233 164357 470
673008 91146 509
670009 963021 525
548243 78564 470
378829 893889 525
647372 168028 509
60822 12885 340
804178 571446 509
682529 138965 509
722845 348070 509
54733 190459 383
104912 232794 443
354137 959668 525
98564 70281 351
361963 3024 443
68543 189382 383
890922 827793 525
258439 317611 407
918517 228230 525
819973 634740 504
246828 596477 470
226214 15307 386
901907 170124 525
506983 943340 525
811413 947110 525
936715 671925 525
353313 146387 443
877560 887517 445
68834 294639 443
98068 720931 509
811146 87934 509
397721 72597 443
524318 149979 470
944434 844123 507
706704 540767 509
855487 400290 525
203282 49487 383
421208 979919 525
445758 56280 449
828277 909398 525
487452 531661 470
846708 301869 525
938411 143633 525
866778 894415 445
440558 626201 470
5553 447922 449
132352 700357 509
234310 391564 441
782627 314102 509
713691 439226 509
710142 645858 504
874121 437017 525
449020 652374 509
65686 203709 383
567589 750134 509
151465 705284 509
159951 369735 443
484050 296091 449
593402 840784 525
838471 128062 525
941400 160645 525
389331 695668 509
292927 56220 443
795151 606647 509
559423 7496 470
362147 695250 509
212059 2540 383
904052 86529 525
660456 834743 504
531018 766719 509
141608 931769 525
616868 206328 470
541579 651536 509
58812 339959 443
578201 677789 509
447862 473459 444
518810 33634 470
728442 420472 509
322493 773242 509
400623 948580 525
361465 52357 443
257378 279916 407
440577 827866 509
767055 468198 509
804515 303221 509
551435 389865 470
785463 782795 331
182877 477572 449
807162 189128 509
506165 903638 525
718259 471462 509
85232 539305 470
328234 137819 443
933521 536617 525
936408 267144 525
709989 812467 468
149421 824356 509
900034 730757 525
354353 561268 470
596124 954399 525
204253 483357 449
46833 587223 470
829897 274103 509
352162 259785 441
596442 431392 470
68675 464634 449
684070 624206 509
162204 895246 525
675855 395049 509
411846 971784 525
314242 257398 407
64775 651925 509
280918 696976 509
626554 667866 442
467517 880067 525
421941 70353 449
639056 683994 442
41729 211619 383
364156 642887 509
134896 967037 525
180654 234617 443
315230 57317 443
705241 965978 525
591362 115362 470
917191 639143 525
685276 839818 525
