562383 317707 470
359961 622398 470
294277 301828 371
40983 143358 375
84041 51537 351
448667 102345 449
904930 606156 525
106890 193312 383
936084 281554 525
214527 470502 449
828896 401850 509
19793 415777 449
339028 51574 443
151531 249936 443
874323 462418 525
383929 94763 443
478208 638994 509
987376 566214 525
88189 108237 354
47608 429421 449
219599 192227 386
586488 321027 470
141398 807035 509
580404 840495 525
112795 203654 383
716038 68564 509
189138 123199 383
306120 817811 509
780576 583946 509
468403 580841 470
943618 126123 525
710994 451809 509
187018 168079 365
6885 159439 383
27232 187887 383
571001 266673 470
765174 936219 525
787278 470749 509
571840 790423 509
539246 324305 470
122588 390090 443
659371 525699 509
239384 195933 443
237799 78471 443
472666 934857 525
58605 850176 525
957965 62944 525
958439 459791 525
637006 521645 509
737926 664377 504
508411 884718 525
741094 638460 504
463077 608182 470
77853 84982 338
611267 737431 509
811182 235491 509
61714 748090 509
717635 860322 525
6940 587141 470
851239 156142 525
335792 492928 449
969799 44421 525
802824 943662 525
931270 291173 525
794095 948212 525
825421 111352 509
923765 678564 525
505280 62896 449
799641 462205 509
468599 101684 449
802748 387107 509
652467 212207 509
129304 337573 443
196205 85091 383
239386 967091 525
722213 372883 509
905749 106432 525
367 857844 525
505374 824064 509
111183 752826 509
270592 675092 509
117616 401140 443
902510 348253 525
817423 820064 450
375942 203601 443
801559 426232 509
409428 779129 509
347096 252934 441
790470 719225 468
905576 705304 525
653709 98223 509
577154 455322 470
6790 657969 509
427127 823336 509
9067 827619 509
740348 136425 509
453362 447318 387
159125 271195 443
47666 162238 383
735673 99364 509
173215 721497 509
550629 340802 470
120677 887913 525
797709 512187 509
458062 763198 509
802424 772358 468
548722 38155 470
515865 772948 509
621339 347523 470
635651 495176 509
302775 1610 443
887209 592410 525
871272 134889 525
793095 83105 509
477169 212327 449
481481 229446 449
555747 838787 525
19598 181225 383
349938 510375 449
749110 654537 504
656625 860015 525
349061 536304 470
449320 394287 449
296270 839521 525
222317 280209 443
580148 747871 509
50775 858340 525
67460 69487 312
320588 212089 443
40761 464943 449
405243 983005 525
354942 377503 423
279816 329388 389
71046 607411 470
316358 114282 443
288365 904560 525
180675 801640 509
993102 991500 352
29482 754133 509
174888 967867 525
526685 414392 470
155550 552532 470
208931 271671 443
120809 29504 354
826883 587682 509
593316 840740 525
406774 987166 525
428827 568134 470
969061 377469 525
190089 457780 449
641288 364339 509
525937 15319 470
276422 21134 443
154288 509015 449
67990 525741 470
292422 990734 525
262609 374368 441
254471 932818 525
503255 72700 449
609674 834882 509
334924 69847 443
916527 655652 525
635923 146032 509
834918 435864 509
916997 680540 525
453704 311087 449
3544 24744 282
749180 278271 509
708651 746862 424
134485 566726 470
31382 23523 308
430396 11053 449
967349 406659 525
324596 413262 449
509798 336034 449
379075 603182 470
672038 670874 323
990890 895321 507
844548 566208 525
71926 198815 383
667392 829374 504
821783 239797 509
513657 362290 470
745807 141804 509
57852 696621 509
591275 956326 525
632382 856383 525
323990 950944 525
608570 416489 470
889924 359694 525
791293 874479 525
362594 614351 470
301513 289222 371
146030 996174 525
409010 923114 525
898677 105579 525
746862 517175 509
457518 326086 449
613929 461011 470
922705 165268 525
